{
  "npmScope": "test-nx-repo",
  "affected": {
    "defaultBase": "master"
  },
  "implicitDependencies": {
    "package.json": {
      "dependencies": "*",
      "devDependencies": "*"
    },
    ".eslintrc.json": "*"
  },
  "tasksRunnerOptions": {
    "default": {
      "runner": "@nrwl/nx-cloud",
      "options": {
        "cacheableOperations": ["build", "lint", "test", "e2e"],
        "accessToken": "YmYyNTIyNmEtZDkwZC00OGZkLTllOGQtOGE3NjIyN2QzYTQyfHJlYWQtd3JpdGU="
      }
    }
  },
  "targetDependencies": {
    "build": [
      {
        "target": "build",
        "projects": "dependencies"
      }
    ]
  },
  "projects": {
    "core-data": {
      "tags": []
    },
    "forms": {
      "tags": []
    },
    "to-dos": {
      "tags": []
    },
    "todo-app": {
      "tags": []
    },
    "todo-app-e2e": {
      "tags": [],
      "implicitDependencies": ["todo-app"]
    },
    "todo-interfaces": {
      "tags": []
    }
  }
}
